Problem set 4
…
Add a region and region name columns to the population data frame.

population <- population |> left_join(regions, by = "state_name")
 
population

# A tibble: 104 × 7
   state_name    year population Year  state region region_name    
   <chr>        <dbl>      <dbl> <chr> <chr>  <dbl> <chr>          
 1 Oklahoma        NA    3962031 2020  OK         6 South Central  
 2 Oklahoma        NA    3986639 2021  OK         6 South Central  
 3 Nebraska        NA    1961455 2020  NE         7 Central Plains 
 4 Nebraska        NA    1963692 2021  NE         7 Central Plains 
 5 Hawaii          NA    1451911 2020  HI         9 Pacific        
 6 Hawaii          NA    1441553 2021  HI         9 Pacific        
 7 South Dakota    NA     887099 2020  SD         8 Mountain States
 8 South Dakota    NA     895376 2021  SD         8 Mountain States
 9 Tennessee       NA    6920119 2020  TN         4 Southeast      
10 Tennessee       NA    6975218 2021  TN         4 Southeast      
# ℹ 94 more rows
…
Warning: `as.tibble()` was deprecated in tibble 2.0.0.
ℹ Please use `as_tibble()` instead.
ℹ The signature and semantics have changed, see `?as_tibble`.

deaths

# A tibble: 2,340 × 3
   state   date                deaths
   <chr>   <dttm>               <dbl>
 1 Alabama 2020-01-31 00:00:00      0
 2 Alabama 2020-02-29 00:00:00      0
 3 Alabama 2020-03-31 00:00:00    132
 4 Alabama 2020-04-30 00:00:00   1476
 5 Alabama 2020-05-31 00:00:00   1843
 6 Alabama 2020-06-30 00:00:00   1769
 7 Alabama 2020-07-31 00:00:00   3878
 8 Alabama 2020-08-31 00:00:00   4268
 9 Alabama 2020-09-30 00:00:00   2447
10 Alabama 2020-10-31 00:00:00   2424
# ℹ 2,330 more rows
…
